

WIDTH=32;
DEPTH=512;


ADDRESS_RADIX = DEC;
DATA_RADIX    = HEX;

CONTENT BEGIN
    0                         : 2A431980;
    1                         : 00000001;
    2                         : 000000C4;
    3                         : 0000003C;
    [4..14]                   : 00000000;
    15                        : 00010041;
    16                        : 000000B4;
    17                        : 00000005;
    18                        : 00150020;
    19                        : 001C0035;
    20                        : 00050051;
    21                        : 00070056;
    22                        : 0019005D;
    23                        : 76696E55;
    24                        : 69737265;
    25                        : 6F207974;
    26                        : 6F542066;
    27                        : 746E6F72;
    28                        : 72616D6F;
    29                        : 2E737569;
    30                        : 6E617473;
    31                        : 69616D40;
    32                        : 74752E6C;
    33                        : 6E6F726F;
    34                        : 632E6F74;
    35                        : 69706861;
    36                        : 2E396570;
    37                        : 2E372E38;
    38                        : 74615332;
    39                        : 63654420;
    40                        : 20343020;
    41                        : 333A3931;
    42                        : 33313A32;
    43                        : 32303220;
    44                        : 00000A31;
    45                        : 00010018;
    46                        : 00000000;
    47                        : 0000012C;
    [48..511]                 : 00000000;
END;
